Part_1/rand_VM/rand_input_moore.vcd
$date
	Tue May 24 12:25:58 2022
$end
$version
	ModelSim Version 2019.4
$end
$timescale
	1ns
$end

$scope module tbench_top $end
$var reg 1 ! clk $end
$var reg 1 " rst $end

$scope module t1 $end
$upscope $end

$scope module DUT $end
$var parameter 32 # MAX_COIN $end
$var parameter 32 $ N $end
$var parameter 32 % M $end
$var reg 3 & state [2:0] $end
$var reg 6 ' balance [5:0] $end
$var reg 10 ( T_clk_cycle [9:0] $end
$var reg 2 ) change [1:0] $end
$var reg 2 * beverage [1:0] $end
$upscope $end

$scope module intf $end
$var wire 1 + clk $end
$var wire 1 , rst $end
$var reg 3 - coin_in [2:0] $end
$var reg 2 . button_in [1:0] $end
$var reg 2 / change_out [1:0] $end
$var reg 2 0 beverage_out [1:0] $end

$scope unknown dut $end
$upscope $end
$upscope $end
$upscope $end
$enddefinitions $end
#0
$dumpvars
0!
1"
bx -
bx .
b0 /
b0 0
b0 &
b0 '
b0 (
b0 )
b0 *
b111100 #
b101 $
b1011 %
1,
0+
$end
#5
1!
0"
1+
0,
b1 &
b111 -
b1 .
#10
0!
0+
#15
1!
1+
b1 -
b0 .
#20
0!
0+
#25
1!
1+
b1 '
b10 -
b11 .
#30
0!
0+
#35
1!
1+
b11 '
b110 -
b0 .
#40
0!
0+
#45
1!
1+
b11 -
b11 .
#50
0!
0+
#55
1!
1+
b1000 '
b100 -
b10 .
#60
0!
0+
#65
1!
1+
b10010 '
b0 -
#70
0!
0+
#75
1!
1+
b1101 '
b11 &
b10 *
b10 0
b1 -
b0 .
#80
0!
0+
#85
1!
1+
b1 (
b100 -
b10 .
#90
0!
0+
#95
1!
1+
b10 (
b0 -
b1 .
#100
0!
0+
#105
1!
1+
b11 (
b100 -
b10 .
#110
0!
0+
#115
1!
1+
b100 (
b110 -
b11 .
#120
0!
0+
#125
1!
1+
b101 (
b101 -
#130
0!
0+
#135
1!
1+
b100 &
b0 *
b0 0
b10 -
b0 .
#140
0!
0+
#145
1!
1+
b110 (
b11 .
#150
0!
0+
#155
1!
1+
b111 (
b0 -
b0 .
#160
0!
0+
#165
1!
1+
b1000 (
b11 -
b10 .
#170
0!
0+
#175
1!
1+
b1001 (
b0 -
#180
0!
0+
#185
1!
1+
b1010 (
b111 -
b0 .
#190
0!
0+
#195
1!
1+
b1011 (
b10 .
#200
0!
0+
#205
1!
1+
b101 &
b110 -
#210
0!
0+
#215
1!
1+
b0 (
b1 &
b0 -
#220
0!
0+
#225
1!
1+
b1000 '
b11 &
b10 *
b10 0
b110 -
b1 .
#230
0!
0+
#235
1!
1+
b1 (
b10 -
b0 .
#240
0!
0+
#245
1!
1+
b10 (
b111 -
b10 .
#250
0!
0+
#255
1!
1+
b11 (
b11 .
#260
0!
0+
#265
1!
1+
b100 (
b100 -
b0 .
#270
0!
0+
#275
1!
1+
b101 (
#280
0!
0+
#285
1!
1+
b100 &
b0 *
b0 0
b111 -
b11 .
#290
0!
0+
#295
1!
1+
b110 (
b100 -
b1 .
#300
0!
0+
#305
1!
1+
b111 (
b1 -
b11 .
#310
0!
0+
#315
1!
1+
b1000 (
b0 -
#320
0!
0+
#325
1!
1+
b1001 (
b100 -
#330
0!
0+
#335
1!
1+
b1010 (
b11 -
b10 .
#340
0!
0+
#345
1!
1+
b1011 (
b11 .
#350
0!
0+
#355
1!
1+
b101 &
b111 -
b1 .
#360
0!
0+
#365
1!
1+
b0 (
b1 &
b100 -
b0 .
#370
0!
0+
#375
1!
1+
b10010 '
b0 -
#380
0!
0+
#385
1!
1+
b100 -
b11 .
#390
0!
0+
#395
1!
1+
b11100 '
b101 -
b0 .
#400
0!
0+
#405
1!
1+
b110000 '
b10 -
#410
0!
0+
#415
1!
1+
b110010 '
b1 -
b1 .
#420
0!
0+
#425
1!
1+
b110011 '
b11 -
#430
0!
0+
#435
1!
1+
b111000 '
b1 -
b10 .
#440
0!
0+
#445
1!
1+
b111001 '
b11 -
b0 .
#450
0!
0+
#455
1!
1+
b111100 '
b1 -
#460
0!
0+
#465
1!
1+
b0 -
b10 .
#470
0!
0+
#475
1!
1+
b110111 '
b11 &
b10 *
b10 0
b101 -
b0 .
#480
0!
0+
#485
1!
1+
b1 (
b1 -
b11 .
#490
0!
0+
#495
1!
1+
b10 (
b111 -
b10 .
